{
    "KPlugin": {
        "Category": "Embedded",
        "Description": "Embedded Plugin",
        "Description[az]": "Daxili qoşmalar",
        "Description[ca@valencia]": "Connector incrustat",
        "Description[ca]": "Connector incrustat",
        "Description[de]": "Modul für eingebettete Systeme",
        "Description[en_GB]": "Embedded Plugin",
        "Description[eo]": "Enkorpigita Kromprogramo",
        "Description[es]": "Complemento empotrado",
        "Description[et]": "Sardseadmete plugin",
        "Description[fi]": "Upotteinen liitännäinen",
        "Description[fr]": "Module externe embarqué",
        "Description[gl]": "Complemento de integrados.",
        "Description[hi]": "अंतर्निर्मित प्लगिन",
        "Description[it]": "Estensione per embedded",
        "Description[ka]": "Embedded დამატება",
        "Description[ko]": "임베디드 플러그인",
        "Description[nl]": "Ingebedde plug-in",
        "Description[nn]": "Innebygd-tillegg",
        "Description[pl]": "Osadzona wtyczka",
        "Description[pt]": "'Plugin' Embebido",
        "Description[pt_BR]": "Plugin embutido",
        "Description[sk]": "Vložený plugin",
        "Description[sl]": "Vgrajeni vtičnik",
        "Description[sv]": "Inbäddat insticksprogram",
        "Description[tr]": "Gümülü Eklenti",
        "Description[uk]": "Додаток вбудованих систем",
        "Description[x-test]": "xxEmbedded Pluginxx",
        "Description[zh_CN]": "嵌入式插件",
        "Description[zh_TW]": "嵌入式外掛",
        "Icon": "project-development-new-template",
        "Id": "kdevembedded",
        "Name": "Embedded systems",
        "Name[az]": "Daxili sistemlər",
        "Name[ca@valencia]": "Sistemes incrustats",
        "Name[ca]": "Sistemes incrustats",
        "Name[de]": "Eingebettete Systeme",
        "Name[en_GB]": "Embedded systems",
        "Name[eo]": "Enkorpigitaj sistemoj",
        "Name[es]": "Sistemas empotrados",
        "Name[et]": "Sardsüsteemid",
        "Name[fi]": "Upotteiset järjestelmät",
        "Name[fr]": "Systèmes embarqués",
        "Name[gl]": "Sistemas integrados",
        "Name[hi]": "अंतर्निर्मित तंत्र",
        "Name[it]": "Sistemi embedded",
        "Name[ka]": "Embedded სისტემები",
        "Name[ko]": "임베디드 시스템",
        "Name[nl]": "Ingebedde systemen",
        "Name[nn]": "Innebygde system",
        "Name[pl]": "Osadzone systemy",
        "Name[pt]": "Sistemas embebidos",
        "Name[pt_BR]": "Sistemas embutidos",
        "Name[sk]": "Vložené systémy",
        "Name[sl]": "Vgrajeni sistemi",
        "Name[sv]": "Inbäddade system",
        "Name[tr]": "Gömülü sistemler",
        "Name[uk]": "Вбудовані системи",
        "Name[x-test]": "xxEmbedded systemsxx",
        "Name[zh_CN]": "嵌入式系统",
        "Name[zh_TW]": "嵌入式系統",
        "ServiceTypes": [
            "KDevelop/Plugin"
        ]
    },
    "X-KDevelop-Category": "Global",
    "X-KDevelop-Mode": "GUI"
}
